<?xml version="1.0" encoding="UTF-8"?>
<testsuites>
  <testsuite name="Admin Test Suite" tests="25" assertions="87" failures="0" errors="2" time="89.422515">
    <testsuite name="AuthControllerTest" file="C:\wamp\www\projetos\loja_1.0\zend\module\Admin\tests\src\Admin\Controller\AuthControllerTest.php" tests="5" assertions="15" failures="0" errors="0" time="20.108670">
      <testcase name="test404" class="AuthControllerTest" file="C:\wamp\www\projetos\loja_1.0\zend\module\Admin\tests\src\Admin\Controller\AuthControllerTest.php" line="29" assertions="1" time="4.660778"/>
      <testcase name="testIndexActionLoginForm" class="AuthControllerTest" file="C:\wamp\www\projetos\loja_1.0\zend\module\Admin\tests\src\Admin\Controller\AuthControllerTest.php" line="37" assertions="8" time="3.469321"/>
      <testcase name="testLoginInvalidMethod" class="AuthControllerTest" file="C:\wamp\www\projetos\loja_1.0\zend\module\Admin\tests\src\Admin\Controller\AuthControllerTest.php" line="72" assertions="2" time="4.556023"/>
      <testcase name="testLogin" class="AuthControllerTest" file="C:\wamp\www\projetos\loja_1.0\zend\module\Admin\tests\src\Admin\Controller\AuthControllerTest.php" line="81" assertions="2" time="3.862082"/>
      <testcase name="testLogout" class="AuthControllerTest" file="C:\wamp\www\projetos\loja_1.0\zend\module\Admin\tests\src\Admin\Controller\AuthControllerTest.php" line="101" assertions="2" time="3.560466"/>
    </testsuite>
    <testsuite name="CategoriaControllerTest" file="C:\wamp\www\projetos\loja_1.0\zend\module\Admin\tests\src\Admin\Controller\CategoriaControllerTest.php" tests="9" assertions="34" failures="0" errors="0" time="26.113612">
      <testcase name="test404" class="CategoriaControllerTest" file="C:\wamp\www\projetos\loja_1.0\zend\module\Admin\tests\src\Admin\Controller\CategoriaControllerTest.php" line="31" assertions="1" time="3.522125"/>
      <testcase name="testIndexAction" class="CategoriaControllerTest" file="C:\wamp\www\projetos\loja_1.0\zend\module\Admin\tests\src\Admin\Controller\CategoriaControllerTest.php" line="41" assertions="5" time="2.454847"/>
      <testcase name="testIndexActionPaginator" class="CategoriaControllerTest" file="C:\wamp\www\projetos\loja_1.0\zend\module\Admin\tests\src\Admin\Controller\CategoriaControllerTest.php" line="71" assertions="8" time="5.571055"/>
      <testcase name="testSaveActionNewRequest" class="CategoriaControllerTest" file="C:\wamp\www\projetos\loja_1.0\zend\module\Admin\tests\src\Admin\Controller\CategoriaControllerTest.php" line="115" assertions="5" time="2.385823"/>
      <testcase name="testSaveActionUpdateFormRequest" class="CategoriaControllerTest" file="C:\wamp\www\projetos\loja_1.0\zend\module\Admin\tests\src\Admin\Controller\CategoriaControllerTest.php" line="141" assertions="6" time="2.377932"/>
      <testcase name="testSaveActionCategoriaRequest" class="CategoriaControllerTest" file="C:\wamp\www\projetos\loja_1.0\zend\module\Admin\tests\src\Admin\Controller\CategoriaControllerTest.php" line="175" assertions="3" time="2.420033"/>
      <testcase name="testSaveActionInvalidCategoriaRequest" class="CategoriaControllerTest" file="C:\wamp\www\projetos\loja_1.0\zend\module\Admin\tests\src\Admin\Controller\CategoriaControllerTest.php" line="200" assertions="2" time="2.330333"/>
      <testcase name="testInvalidDeleteAction" class="CategoriaControllerTest" file="C:\wamp\www\projetos\loja_1.0\zend\module\Admin\tests\src\Admin\Controller\CategoriaControllerTest.php" line="231" assertions="2" time="2.755877"/>
      <testcase name="testDeleteAction" class="CategoriaControllerTest" file="C:\wamp\www\projetos\loja_1.0\zend\module\Admin\tests\src\Admin\Controller\CategoriaControllerTest.php" line="246" assertions="2" time="2.295587"/>
    </testsuite>
    <testsuite name="IndexControllerTest" file="C:\wamp\www\projetos\loja_1.0\zend\module\Admin\tests\src\Admin\Controller\IndexControllerTest.php" tests="2" assertions="6" failures="0" errors="0" time="4.516814">
      <testcase name="test404" class="IndexControllerTest" file="C:\wamp\www\projetos\loja_1.0\zend\module\Admin\tests\src\Admin\Controller\IndexControllerTest.php" line="31" assertions="1" time="2.046159"/>
      <testcase name="testIndexAction" class="IndexControllerTest" file="C:\wamp\www\projetos\loja_1.0\zend\module\Admin\tests\src\Admin\Controller\IndexControllerTest.php" line="42" assertions="5" time="2.470655"/>
    </testsuite>
    <testsuite name="SubcategoriaControllerTest" file="C:\wamp\www\projetos\loja_1.0\zend\module\Admin\tests\src\Admin\Controller\SubcategoriaControllerTest.php" tests="9" assertions="32" failures="0" errors="2" time="38.683420">
      <testcase name="test404" class="SubcategoriaControllerTest" file="C:\wamp\www\projetos\loja_1.0\zend\module\Admin\tests\src\Admin\Controller\SubcategoriaControllerTest.php" line="32" assertions="1" time="2.686434"/>
      <testcase name="testIndexAction" class="SubcategoriaControllerTest" file="C:\wamp\www\projetos\loja_1.0\zend\module\Admin\tests\src\Admin\Controller\SubcategoriaControllerTest.php" line="42" assertions="5" time="2.609494"/>
      <testcase name="testIndexActionPaginator" class="SubcategoriaControllerTest" file="C:\wamp\www\projetos\loja_1.0\zend\module\Admin\tests\src\Admin\Controller\SubcategoriaControllerTest.php" line="72" assertions="8" time="10.287146"/>
      <testcase name="testSaveActionNewRequest" class="SubcategoriaControllerTest" file="C:\wamp\www\projetos\loja_1.0\zend\module\Admin\tests\src\Admin\Controller\SubcategoriaControllerTest.php" line="116" assertions="5" time="3.806224"/>
      <testcase name="testSaveActionUpdateFormRequest" class="SubcategoriaControllerTest" file="C:\wamp\www\projetos\loja_1.0\zend\module\Admin\tests\src\Admin\Controller\SubcategoriaControllerTest.php" line="142" assertions="7" time="4.212715"/>
      <testcase name="testSaveActionSubcategoriaRequest" class="SubcategoriaControllerTest" file="C:\wamp\www\projetos\loja_1.0\zend\module\Admin\tests\src\Admin\Controller\SubcategoriaControllerTest.php" line="178" assertions="0" time="3.152604">
        <error type="Zend\Db\Adapter\Exception\InvalidQueryException">SubcategoriaControllerTest::testSaveActionSubcategoriaRequest
Zend\Db\Adapter\Exception\InvalidQueryException: Statement could not be executed

C:\wamp\www\projetos\loja_1.0\zend\vendor\zendframework\zendframework\library\Zend\Db\Adapter\Driver\Pdo\Statement.php:245
C:\wamp\www\projetos\loja_1.0\zend\vendor\zendframework\zendframework\library\Zend\Db\Adapter\Driver\Pdo\Statement.php:240
C:\wamp\www\projetos\loja_1.0\zend\vendor\zendframework\zendframework\library\Zend\Db\TableGateway\AbstractTableGateway.php:291
C:\wamp\www\projetos\loja_1.0\zend\vendor\zendframework\zendframework\library\Zend\Db\TableGateway\AbstractTableGateway.php:258
C:\wamp\www\projetos\loja_1.0\zend\module\Core\src\Core\Db\TableGateway.php:82
C:\wamp\www\projetos\loja_1.0\zend\module\Admin\src\Admin\Controller\SubcategoriaController.php:61
C:\wamp\www\projetos\loja_1.0\zend\vendor\zendframework\zendframework\library\Zend\Mvc\Controller\AbstractActionController.php:83
C:\wamp\www\projetos\loja_1.0\zend\vendor\zendframework\zendframework\library\Zend\EventManager\EventManager.php:472
C:\wamp\www\projetos\loja_1.0\zend\vendor\zendframework\zendframework\library\Zend\EventManager\EventManager.php:207
C:\wamp\www\projetos\loja_1.0\zend\vendor\zendframework\zendframework\library\Zend\Mvc\Controller\AbstractController.php:117
C:\wamp\www\projetos\loja_1.0\zend\module\Admin\tests\src\Admin\Controller\SubcategoriaControllerTest.php:188
</error>
      </testcase>
      <testcase name="testSaveActionInvalidSubcategoriaRequest" class="SubcategoriaControllerTest" file="C:\wamp\www\projetos\loja_1.0\zend\module\Admin\tests\src\Admin\Controller\SubcategoriaControllerTest.php" line="205" assertions="2" time="3.506170">
        <error type="PHPUnit_Framework_Error_Notice">SubcategoriaControllerTest::testSaveActionInvalidSubcategoriaRequest
Undefined index: isEmpty

C:\wamp\www\projetos\loja_1.0\zend\module\Admin\tests\src\Admin\Controller\SubcategoriaControllerTest.php:228
</error>
      </testcase>
      <testcase name="testInvalidDeleteAction" class="SubcategoriaControllerTest" file="C:\wamp\www\projetos\loja_1.0\zend\module\Admin\tests\src\Admin\Controller\SubcategoriaControllerTest.php" line="241" assertions="2" time="3.449569"/>
      <testcase name="testDeleteAction" class="SubcategoriaControllerTest" file="C:\wamp\www\projetos\loja_1.0\zend\module\Admin\tests\src\Admin\Controller\SubcategoriaControllerTest.php" line="256" assertions="2" time="4.973064"/>
    </testsuite>
  </testsuite>
</testsuites>
